Base path: 'D:/Igor/unity/2019.3.0f3/Editor/Data', plugins path 'D:/Igor/unity/2019.3.0f3/Editor/Data/PlaybackEngines'
Cmd: initializeCompiler
Unhandled exception: Protocol error - unexpected end of data (did the Editor crash?)

Quitting shader compiler process
